{"success":"true","message":"Nutrition information fetched successfully.","payload":{"data":[{"recipeTitle":"Egyptian Lentil Soup","_id":"64c4197fc6779f7b31e6dd78","Recipe_id":"2610","ndb_id":"16144","Ash (g)":"5.76","Calcium, Ca (mg)":"92.16","Carbohydrate, by difference (g)":"121.152","Cholesterol (mg)":"0.0","Copper, Cu (mg)":"2.5018","Energy (kJ)":"2876.16","Energy (kcal)":"687.36","Fatty acids, total monounsaturated (g)":"0.96","Fatty acids, total polyunsaturated (g)":"2.1830000000000003","Fatty acids, total saturated (g)":"0.7277","Fatty acids, total saturated 14:0 (g)":"0.0058","Fatty acids, total saturated 16:0 (g)":"0.5453","Fatty acids, total saturated 18:0 (g)":"0.0806","Fatty acids, total saturated 18:1 undifferentiated (g)":"0.9408","Fatty acids, total saturated 18:2 undifferentiated (g)":"1.7011","Fiber, total dietary (g)":"20.736","Folate, DFE (g)":"391.68","Folate, food (g)":"391.68","Folate, total (g)":"391.68","Folic acid (g)":"0.0","Iron, Fe (mg)":"14.1888","Magnesium, Mg (mg)":"113.28","Manganese, Mn (mg)":"3.2947","Niacin (mg)":"2.8704","Phosphorus, P (mg)":"564.48","Phytosterols (mg)":"109.44","Potassium, K (mg)":"1282.56","Protein (g)":"45.9072","Retinol (g)":"0.0","Riboflavin (mg)":"0.2035","Selenium, Se (g)":"0.0","Sodium, Na (mg)":"13.44","Thiamin (mg)":"0.9792","Total lipid (fat) (g)":"4.1664","Vitamin A, IU (IU)":"111.36","Vitamin A, RAE (g)":"5.76","Vitamin B-12 (g)":"0.0","Vitamin C, total ascorbic acid (mg)":"3.264","Vitamin D (D2 + D3) (g)":"0.0","Vitamin D (IU)":"0.0","Water (g)":"15.0144","Zinc, Zn (mg)":"6.912000000000001"},{"recipeTitle":"Egyptian Green Beans with Carrots","_id":"64c4197fc6779f7b31e6dd79","Recipe_id":"2611","ndb_id":"11215","Ash (g)":"0.09","Calcium, Ca (mg)":"10.86","Carbohydrate, by difference (g)":"1.9836","Cholesterol (mg)":"0.0","Copper, Cu (mg)":"0.0179","Energy (kJ)":"37.38","Energy (kcal)":"8.94","Fatty acids, total monounsaturated (g)":"0.0007","Fatty acids, total polyunsaturated (g)":"0.0149","Fatty acids, total saturated (g)":"0.0053","Fatty acids, total saturated 14:0 (g)":"0.0","Fatty acids, total saturated 16:0 (g)":"0.0052","Fatty acids, total saturated 16:1 undifferentiated (g)":"0.0","Fatty acids, total saturated 18:0 (g)":"0.0","Fatty acids, total saturated 18:1 undifferentiated (g)":"0.0007","Fatty acids, total saturated 18:2 undifferentiated (g)":"0.0137","Fiber, total dietary (g)":"0.126","Folate, DFE (g)":"0.18","Folate, food (g)":"0.18","Folate, total (g)":"0.18","Folic acid (g)":"0.0","Iron, Fe (mg)":"0.102","Magnesium, Mg (mg)":"1.5","Manganese, Mn (mg)":"0.1003","Niacin (mg)":"0.042","Phosphorus, P (mg)":"9.18","Potassium, K (mg)":"24.06","Protein (g)":"0.3816","Retinol (g)":"0.0","Riboflavin (mg)":"0.0066","Selenium, Se (g)":"0.852","Sodium, Na (mg)":"1.02","Thiamin (mg)":"0.012","Total lipid (fat) (g)":"0.03","Vitamin A, IU (IU)":"0.54","Vitamin A, RAE (g)":"0.0","Vitamin B-12 (g)":"0.0","Vitamin C, total ascorbic acid (mg)":"1.8719999999999999","Vitamin D (D2 + D3) (g)":"0.0","Vitamin D (IU)":"0.0","Water (g)":"3.5148","Zinc, Zn (mg)":"0.0696"}],"pagination":{"totalCount":720883,"totalPages":360442,"currentPage":1,"itemsPerPage":2}}}